Sheikh M Muneer-MP2-Final
…
Mode Function:

We are making Mode Function to Impute Mode on Categorical Columns where values are Nulls.

getmode <- function(v) {
  uniqv <- unique(v)
  uniqv[which.max(tabulate(match(v, uniqv)))]
}

Dealing of Missing numeric values with Mean Imputation

ames_train_int <- dplyr::select_if(df_ames, is.numeric)
ames_train_int

## # A tibble: 1,460 x 37
##       Id LotFrontage LotArea OverallQual OverallCond YearBuilt YearRemodAdd
##    <dbl>       <dbl>   <dbl>       <dbl>       <dbl>     <dbl>        <dbl>
##  1     1          65    8450           7           5      2003         2003
##  2     2          80    9600           6           8      1976         1976
##  3     3          68   11250           7           5      2001         2002
##  4     4          60    9550           7           5      1915         1970
##  5     5          84   14260           8           5      2000         2000
##  6     6          85   14115           5           5      1993         1995
##  7     7          75   10084           8           5      2004         2005
##  8     8          NA   10382           7           6      1973         1973
##  9     9          51    6120           7           5      1931         1950
## 10    10          50    7420           5           6      1939         1950
## # ... with 1,450 more rows, and 30 more variables: MasVnrArea <dbl>,
## #   BsmtFinSF1 <dbl>, BsmtFinSF2 <dbl>, BsmtUnfSF <dbl>, TotalBsmtSF <dbl>,
## #   `1stFlrSF` <dbl>, `2ndFlrSF` <dbl>, LowQualFinSF <dbl>, GrLivArea <dbl>,
## #   BsmtFullBath <dbl>, BsmtHalfBath <dbl>, FullBath <dbl>, HalfBath <dbl>,
## #   BedroomAbvGr <dbl>, KitchenAbvGr <dbl>, TotRmsAbvGrd <dbl>,
## #   Fireplaces <dbl>, GarageYrBlt <dbl>, GarageCars <dbl>, GarageArea <dbl>,
## #   WoodDeckSF <dbl>, OpenPorchSF <dbl>, EnclosedPorch <dbl>,
## #   `3SsnPorch` <dbl>, ScreenPorch <dbl>, PoolArea <dbl>, MiscVal <dbl>,
## #   MoSold <dbl>, YrSold <dbl>, SalePrice <dbl>
…
